[
    {
        "name": " - - -  ",
        "minus": 0,
        "lines": [
            "-- - - - - ",
        ],
        "like":5,
        "love":11,
        "haha":88,
        "yay":5,
        "wow":26,
        "sad":6,
        "angry":1    
    
    },
    
    {
        "name": "Karen King ",
        "minus": 1,
        "lines": [
            "Do Huntly residents not have a say in this?",
        ],
        "like":14,
        "love":1,
        "haha":1,
        "yay":1,
        "wow":1,
        "sad":1,
        "angry":17,    
    
    },
    {
        "name": "Marie Duncan",
        "minus": 0,
        "lines": [
            "Am speechless in times where there are so",
            "many funding issues across our statutory services to waste ",
            "money planting trees when for a statement is utterly pointless ",
        ],
        "like":9,
        "love":0,
        "haha":0,
        "yay":0,
        "wow":0,
        "sad":0,
        "angry":0
    },
    {
        "name": "Phil Dawson ",
        "minus": 1,
        "lines": [
            "What a load oh bollox",
        ],
        "like":10,
        "love":0,
        "haha":0,
        "yay":0,
        "wow":0,
        "sad":0,
        "angry":0
    },{
        "name": "Roy McGregor ",
        "minus": 0,
        "lines": [
            "There never was and never should be a tree ",
            "there, just so wrong!"
        ],
        "like":7,
        "love":0,
        "haha":0,
        "yay":0,
        "wow":0,
        "sad":0,
        "angry":0
    },
    {
        "name": "Peter Brown ",
        "minus": 0,
        "lines": [
            ".. symbolising the 'saddness' of losing ",
            "the UK's £39 billion contribution, which the remoaners",
            "at DA's are politically promoting?",
        ],
        "like":0,
        "love":0,
        "haha":0,
        "yay":0,
        "wow":1,
        "sad":1,
        "angry":2 
    
    },
    {
        "name": "Martin Petrie",
        "minus": 2,
        "lines": [
            "Make the deveron great again!!!",
        ],
        "like":0,
        "love":2,
        "haha":0,
        "yay":1,
        "wow":0,
        "sad":0,
        "angry":0   
    },
    {
        "name": "Steve Beattie-Hay",
        "minus": 2,
        "lines": [
            "so why is an organisation, which is funded",
            "in part by public money, getting involved in a political ",
            "hot potato, indeed supporting one view over another?",
        ],
        "like":4,
        "love":0,
        "haha":0,
        "yay":1,
        "wow":0,
        "sad":0,
        "angry":0   
    },
    {
        "name": "Hazel Mclaren",
        "minus": 0,
        "lines": [
            "the article state that the tree is symbolising",
            "both sadness and healing and healing is certainly something ",
            "we need around this issue.",
        ],
        "like":1,
        "love":0,
        "haha":0,
        "yay":0,
        "wow":0,
        "sad":0,
        "angry":0   
    },
    {
        "name": "Peter Brown ",
        "minus": 1,
        "lines": [
            "saddness says who? 17.4 million people are",
            "NOT sad, only REMOANERS!",
        ],
        "like":0,
        "love":1,
        "haha":0,
        "yay":0,
        "wow":1,
        "sad":1,
        "angry":0
    
    },
    {
        "name": "Hazel Mclaren",
        "minus": 1,
        "lines": [
            "it is sad that it has come to this people ",
            "in a community shouting at each other on Facebook when",
            "they both think they are looking to the best for the friends ",
            "families. Do we not all want the same?  A decent life?"
        ],
        "like":0,
        "love":0,
        "haha":0,
        "yay":1,
        "wow":0,
        "sad":0,
        "angry":0
    
    },
    {
        "name": "Moira Simpson",
        "minus": 0,
        "lines": [
            "Just saying we shouldn't judge or believe ",
            "everything we read in the press or media."
        ],
        "like":5,
        "love":0,
        "haha":0,
        "yay":1,
        "wow":0,
        "sad":0,
        "angry":0
    
    },
    {
        "name": "Ellie Turner",
        "minus": 2,
        "lines": [
            "To Deveron Projects: I think this thread speaks ",
            "for itself - please don't do this. Brexit is divisive enough ",
            "as it is and to put this kind of nonsensical blot on such a",
            "lovely piece of land will only cause more division and destroy ",
            "a beautiful place. We do not need this. I sincerely hope you",
            "listen to the views of Huntly's people and leave well alone! "
        ],
        "like":6,
        "love":1,
        "haha":1,
        "yay":0,
        "wow":0,
        "sad":0,
        "angry":1
    
    },
    {
        "name": "Norman Stewart ",
        "minus": 1,
        "lines": [
            "exactly but they don’t care about Huntly all",
            "they care about is their salaries. I have stayed in Huntly all",
            "my life and none of the locals can work out what they",
            "contribute to the community."
        ],
        "like":11,
        "love":0,
        "haha":0,
        "yay":0,
        "wow":0,
        "sad":0,
        "angry":0
    
    },
    {
        "name": "Robin Law ",
        "minus": 0,
        "lines": [
            "Who does this artist guy think he is anyway?",
            "Not everyone in Huntly sees leaving the EU as",
            "'loss and sorrow'.",
        ],
        "like":17,
        "love":0,
        "haha":0,
        "yay":1,
        "wow":0,
        "sad":0,
        "angry":2
    
    },
    {
        "name": "Ingrid-Lucie Binning",
        "minus": 2,
        "lines": [
            "2 days and it’ll be broken or",
            "vandalised!"
        ],
        "like":0,
        "love":0,
        "haha":0,
        "yay":0,
        "wow":0,
        "sad":0,
        "angry":0
    
    },
    {
        "name": "Zoe King-Arthur",
        "minus": 1,
        "lines": [
            "I would like to know who funds ",
            "the white elephant that is Deveron Arts and all their ",
            "'airy fairy' projects and shops/cafes. All their projects are ",
            "targeted towards a very select group of people. I for one",
            "believe that the money could be far better spent on the ",
            "community as a whole."
        ],
        "like":12,
        "love":0,
        "haha":0,
        "yay":0,
        "wow":0,
        "sad":0,
        "angry":0
    
    },
    {
        "name": "Bill McRitchie",
        "minus": 2,
        "lines": [
            "To be honest, I don't think the money side  ",
            "is the problem with this particular story. For me, the problem ",
            "is that a small group of people, to satisfy their own beliefs, ",
            "think they can plunk a tree in such a prominent, popular, part",
            "of oor toon, and try to say it is for the community, Ridiculous!"
        ],
        "like":14,
        "love":0,
        "haha":0,
        "yay":0,
        "wow":0,
        "sad":0,
        "angry":0
    
    },
    {
        "name": "Bill McRitchie",
        "minus": 2,
        "lines": [
            "And I'm sure a person who is from Huntly",
            "will be doing the unplanting ",
        ],
        "like":5,
        "love":0,
        "haha":4,
        "yay":1,
        "wow":0,
        "sad":0,
        "angry":0
    
    },
    {
        "name": "Graham Jolly",
        "minus": 0,
        "lines": [
            "I think the people who need healing are ",
            "not from Huntly but from other countries and have forgotten",
            "just how much the UK has sacrificed for them."
        ],
        "like":5,
        "love":0,
        "haha":0,
        "yay":0,
        "wow":0,
        "sad":0,
        "angry":0
    
    },
    {
        "name": "Jennifer Morris",
        "minus": 2,
        "lines": [
            "your carer know you're unsupervised online ?"
        ],
        "like":2,
        "love":0,
        "haha":0,
        "yay":0,
        "wow":0,
        "sad":0,
        "angry":0
    
    },
    {
        "name": "Scott Bremner",
        "minus": 0,
        "lines": [
            "They’ve been deported. "
        ],
        "like":1,
        "love":0,
        "haha":2,
        "yay":0,
        "wow":0,
        "sad":0,
        "angry":0
    
    },
    {
        "name": "Kevin Mcintosh ",
        "minus": 2,
        "lines": [
            "maybe the 'artist' would be better taking ",
            "himself back to berlin and planting his tree over there.. "
        ],
        "like":1,
        "love":0,
        "haha":2,
        "yay":0,
        "wow":0,
        "sad":0,
        "angry":0
    
    },
    {
        "name": "James Fyfe",
        "minus": 0,
        "lines": [
            "forget brexit, a walk up the street is enough",
            "to give a feeling of sorrow and loss when you look at all",
            "the empty shops, banks, hotels, post office etc I'm at ",
            "a loss for any more words ."
        ],
        "like":5,
        "love":0,
        "haha":2,
        "yay":0,
        "wow":0,
        "sad":1,
        "angry":0
    
    },
    {
        "name": "Kevin Mcintosh",
        "minus": 0,
        "lines": [
            "how are we going to suffer..people seem ",
            "to forget this country was doing great before we were",
            "dragged into the eu..since then we have basicaly been",
            "ruled by brussels...its about time we took back control ",
            "and made our own choices and rules"
        ],
        "like":5,
        "love":0,
        "haha":2,
        "yay":1,
        "wow":0,
        "sad":0,
        "angry":1
    
    },
    {
        "name": " angry bitches",
        "minus": 0,
        "lines": [
            " Doone ",
        ],
        "like":1,
        "love":1,
        "haha":1,
        "yay":1,
        "wow":1,
        "sad":1,
        "angry":1,    
    
    }
]